
{"count": 4, "next": "http://freedom:8000/api/v1/layers/rome/nodes/?limit=1&page=3&format=json", "previous": "http://freedom:8000/api/v1/layers/rome/nodes/?limit=1&page=1&format=json", "results": [{"name": "Pomezia", "slug": "pomezia", "layer": "rome", "layer_name": "Rome", "user": "romano", "status": "active", "geometry": {"type": "Point", "coordinates": [12.501215021991365, 41.66770700125151]}, "elev": 160.0, "address": "", "description": "Pomezia", "updated": "2013-06-20T11:07:29.753Z", "added": "2013-06-14T13:30:29.323Z", "details": "http://freedom:8000/api/v1/nodes/pomezia/"}]}
